-------------------------------------------------------------------------------
Test set: com.example.service.KafkaMessagingServiceImplTest
-------------------------------------------------------------------------------
Tests run: 1, Failures: 0, Errors: 1, Skipped: 0, Time elapsed: 4.29 s <<< FAILURE! - in com.example.service.KafkaMessagingServiceImplTest
testSendAndConsumeKafkaMessage  Time elapsed: 2.061 s  <<< ERROR!
java.lang.NullPointerException
	at com.example.service.KafkaMessagingServiceImplTest.testSendAndConsumeKafkaMessage(KafkaMessagingServiceImplTest.java:39)

